…
``` r
tmp <- transactions %>% mutate(year_month = make_date(year=year(date), month=month(date)))
tmp
```

    ## # A tibble: 90,275 x 4
    ##    id_parcel logerror date       year_month
    ##        <dbl>    <dbl> <date>     <date>    
    ##  1  11016594   0.0276 2016-01-01 2016-01-01
    ##  2  14366692  -0.168  2016-01-01 2016-01-01
    ##  3  12098116  -0.004  2016-01-01 2016-01-01
    ##  4  12643413   0.0218 2016-01-02 2016-01-01
    ##  5  14432541  -0.005  2016-01-02 2016-01-01
    ##  6  11509835  -0.270  2016-01-02 2016-01-01
    ##  7  12286022   0.044  2016-01-02 2016-01-01
    ##  8  17177301   0.164  2016-01-02 2016-01-01
    ##  9  14739064  -0.003  2016-01-02 2016-01-01
    ## 10  14677559   0.0843 2016-01-03 2016-01-01
    ## # … with 90,265 more rows
…
